Examen 1 Daniel Camarena, Maximiliano Alvarez
…
## # A tibble: 11 x 5
##    docID.x word       count.x docID.y count.y
##      <int> <chr>        <int>   <int>   <int>
##  1     100 afternoon        1   17230       1
##  2     100 andor            1   17230       1
##  3     100 hear             1   17230       1
##  4     100 material         1   17230       2
##  5     100 message          1   17230       2
##  6     100 person           1   17230       3
##  7     100 prohibited       1   17230       1
##  8     100 receive          1   17230       1
##  9     100 review           1   17230       1
## 10     100 saturday         1   17230       2
## 11     100 thing            1   17230       1
## # A tibble: 29 x 5
##    docID.x word       count.x docID.y count.y
##      <int> <chr>        <int>   <int>   <int>
##  1     100 acceptance       1   17890       1
##  2     100 affiliate        1   17890       2
##  3     100 affiliates       1   17890       1
##  4     100 andor            1   17890       1
##  5     100 basis            1   17890       1
##  6     100 binding          1   17890       1
##  7     100 closing          1   17890       1
##  8     100 contract         2   17890       5
##  9     100 corp             3   17890       2
## 10     100 create           1   17890       1
## # ... with 19 more rows
…
## 1    1400 item        1   15443       1
## # A tibble: 0 x 5
## # ... with 5 variables: docID.x <int>, word <chr>, count.x <int>,
## #   docID.y <int>, count.y <int>
## # A tibble: 0 x 5
## # ... with 5 variables: docID.x <int>, word <chr>, count.x <int>,
## #   docID.y <int>, count.y <int>
## # A tibble: 4 x 5
##   docID.x word      count.x docID.y count.y
##     <int> <chr>       <int>   <int>   <int>
## 1    1400 month           1   15521       1
## 2    1400 proceed         1   15521       1
## 3    1400 receiving       1   15521       1
## 4    1400 sure            1   15521       2
## # A tibble: 22 x 5
##    docID.x word      count.x docID.y count.y
##      <int> <chr>       <int>   <int>   <int>
##  1    1400 account         3    1644       1
##  2    1400 add             1    1644       1
##  3    1400 address         2    1644       1
##  4    1400 advantage       1    1644       1
##  5    1400 book            1    1644       2
##  6    1400 code            3    1644       1
##  7    1400 complete        1    1644       4
##  8    1400 customer        2    1644       1
##  9    1400 detail          2    1644       3
## 10    1400 enter           1    1644       1
## # ... with 12 more rows
…
arrange(latentes_pelis, features_2) %>% 
  select(Title, features_2, media_peli, num_calif_peli) %>% 
  filter(num_calif_peli > 500) %>% 
  head(100) 

## # A tibble: 100 x 4
##    Title                              features_2 media_peli num_calif_peli
##    <chr>                                   <dbl>      <dbl>          <int>
##  1 Star Wars: Episode IV - A New Hop~      -1.94       4.19          54502
##  2 Lord of the Rings: The Fellowship~      -1.85       4.14          37553
##  3 Lord of the Rings: The Return of ~      -1.85       4.14          31577
##  4 Star Wars: Episode V - The Empire~      -1.85       4.19          45313
##  5 Lord of the Rings: The Two Towers~      -1.82       4.11          33947
##  6 Captain America: The Winter Soldi~      -1.78       3.71           1261
##  7 Harry Potter and the Deathly Hall~      -1.74       3.95           3983
##  8 Autumn Tale, An (Conte d'automne)~      -1.73       3.70            528
##  9 Star Wars: Episode VI - Return of~      -1.73       4.00          46839
## 10 Matrix, The (1999)                      -1.72       4.19          51334
## # ... with 90 more rows
…
